\relax 
\providecommand\zref@newlabel[2]{}
\citation{wong1984vector}
\providecommand \oddpage@label [2]{}
\@writefile{toc}{\contentsline {section}{\numberline {1}Objective}{1}\protected@file@percent }
\@writefile{toc}{\contentsline {section}{\numberline {2}Description of the problem}{1}\protected@file@percent }
\citation{harman1995overview}
\@writefile{lof}{\contentsline {figure}{\numberline {1}{\ignorespaces Figure 1}}{2}\protected@file@percent }
\newlabel{fig:sequence-diagram-uml}{{1}{2}}
\@writefile{toc}{\contentsline {section}{\numberline {3}Methodology}{2}\protected@file@percent }
<<<<<<< Updated upstream
\@writefile{toc}{\contentsline {subsection}{\numberline {3.1}Node App}{3}\protected@file@percent }
\@writefile{toc}{\contentsline {subsubsection}{\numberline {3.1.1}Front-end}{3}\protected@file@percent }
\@writefile{toc}{\contentsline {subsubsection}{\numberline {3.1.2}JavaScript}{3}\protected@file@percent }
\@writefile{toc}{\contentsline {subsection}{\numberline {3.2}Python scripts}{3}\protected@file@percent }
\@writefile{toc}{\contentsline {subsubsection}{\numberline {3.2.1}Single Query mode}{3}\protected@file@percent }
\@writefile{loa}{\contentsline {algocf}{\numberline {1}{\ignorespaces \texttt  {VectorSpaceModel}}}{4}\protected@file@percent }
\newlabel{alg:vectorSpaceModel}{{1}{4}}
\@writefile{toc}{\contentsline {subsubsection}{\numberline {3.2.2}Precision and Recall mode}{4}\protected@file@percent }
\@writefile{loa}{\contentsline {algocf}{\numberline {2}{\ignorespaces \texttt  {InterpolatedPrecision}}}{4}\protected@file@percent }
\newlabel{alg:interpolatedPrecision}{{2}{4}}
\@writefile{toc}{\contentsline {subsection}{\numberline {3.3}Running the program}{4}\protected@file@percent }
\@writefile{lof}{\contentsline {figure}{\numberline {2}{\ignorespaces Figure 2}}{5}\protected@file@percent }
\newlabel{fig:sequence-diagram-uml}{{2}{5}}
\pgfsyspdfmark {pgfid1}{5317059}{19897435}
\@writefile{toc}{\contentsline {section}{\numberline {4}Results and Analysis}{5}\protected@file@percent }
\bibstyle{apacite}
\bibdata{bibliography}
\bibcite{harman1995overview}{\citeauthoryear {Harman}{Harman}{{\APACyear {1995}}}}
\APACbibcite{harman1995overview}{\citeauthoryear {Harman}{Harman}{{\APACyear {1995}}}}
\bibcite{wong1984vector}{\citeauthoryear {Wong\ \BBA{} Raghavan}{Wong\ \BBA{} Raghavan}{{\APACyear {1984}}}}
\APACbibcite{wong1984vector}{\citeauthoryear {Wong\ \BBA{} Raghavan}{Wong\ \BBA{} Raghavan}{{\APACyear {1984}}}}
\@writefile{toc}{\contentsline {section}{\numberline {5}Conclusions}{6}\protected@file@percent }
\@writefile{toc}{\contentsline {section}{References}{6}\protected@file@percent }
=======
\@writefile{toc}{\contentsline {subsection}{\numberline {3.1}Node application}{2}\protected@file@percent }
\@writefile{toc}{\contentsline {subsection}{\numberline {3.2}Python scripts}{2}\protected@file@percent }
\@writefile{toc}{\contentsline {subsubsection}{\numberline {3.2.1}Single query mode}{2}\protected@file@percent }
\@writefile{toc}{\contentsline {subsubsection}{\numberline {3.2.2}Precision and recall mode}{2}\protected@file@percent }
\pgfsyspdfmark {pgfid1}{5317059}{6933095}
\bibstyle{apacite}
\bibdata{bibliography}
\@writefile{toc}{\contentsline {section}{\numberline {4}Results and Analysis}{3}\protected@file@percent }
\@writefile{toc}{\contentsline {section}{\numberline {5}Conclusions}{3}\protected@file@percent }
>>>>>>> Stashed changes
